FFA project group 7
…
# A tibble: 1 × 1
      n
  <int>
1  3053

From 162k observations to 46k observations once we filter banks only, and 3053 unique companies

Getting a sense of how many countries in the data

df |> 
  group_by(Nation_06026)|>
  summarize(country_counts=n())|>
  arrange(desc(country_counts))

# A tibble: 125 × 2
   Nation_06026   country_counts
   <chr>                   <int>
 1 UNITED STATES           16839
 2 JAPAN                    2413
 3 INDIA                    1022
 4 INDONESIA                 938
 5 CHINA                     851
 6 NORWAY                    740
 7 BRAZIL                    681
 8 DENMARK                   677
 9 FRANCE                    676
10 UNITED KINGDOM            660
# ℹ 115 more rows
…
# A tibble: 1 × 1
      n
  <int>
1  1262

From 3053 banking companies (full dataset) to 1262 banking companies (AAER data)

Getting the countries that AAER data includes

df_aaer |>
  group_by(ITEM6026)|>
  summarize(n=n())|>
  arrange(desc(n))

# A tibble: 39 × 2
   ITEM6026           n
   <chr>          <int>
 1 UNITED STATES  16839
 2 TURKEY           165
 3 AUSTRALIA        144
 4 ARGENTINA        135
 5 UNITED KINGDOM   106
 6 SOUTH AFRICA      94
 7 BRAZIL            93
 8 HONG KONG         88
 9 PUERTO RICO       88
10 SPAIN             85
# ℹ 29 more rows

39 countries, most observations from the USA as expected

How many occurrences of AAER in relation to total observations per year?

df_aaer |>
  group_by(year)|>
  mutate(total_AAERS = sum(AAER==1), total_observations=n(), percent_AAERS = total_AAERS/total_observations)|>
  select(year, total_AAERS, total_observations, percent_AAERS)|>
  arrange(year)|>
  unique()

# A tibble: 24 × 4
# Groups:   year [24]
    year total_AAERS total_observations percent_AAERS
   <dbl>       <int>              <int>         <dbl>
 1  2000          12                766        0.0157
 2  2001          11                822        0.0134
 3  2002          12                849        0.0141
 4  2003          12                877        0.0137
 5  2004          11                899        0.0122
 6  2005          17                919        0.0185
 7  2006          16                918        0.0174
 8  2007          19                910        0.0209
 9  2008          19                904        0.0210
10  2009          19                901        0.0211
# ℹ 14 more rows
…
Warning in log(df[[col]] + small_number): NaNs produced

df_aaer3 is log transformed. df_aaer2 is the non log-transformed data.

Running both the df_aaer2 and df_aaer3 models in a seperate test script produced good results in terms of AUC. However, we could explore more…

We also saw that the raw accounting line items are inaccurate because of currency inconsistencies. Some records are in USD, while other records from other countries are in other currencies (eg. Argentina uses peso, Singapore uses SGD…).

This is captured in ITEM6099, “Currency Of Document”.

df_aaer %>%
  select(ITEM6099)|>
  unique()

# A tibble: 33 × 1
   ITEM6099
   <chr>   
 1 USD     
 2 EUR     
 3 <NA>    
 4 MXN     
 5 ESP     
 6 CLP     
 7 ARS     
 8 COP     
 9 VES     
10 HKD     
# ℹ 23 more rows
…
